/Users/zhongxuwang/Desktop/gitProject/changgou_parent/changgou_common/src/main/java/com/changgou/common/pojo/StatusCode.java
/Users/zhongxuwang/Desktop/gitProject/changgou_parent/changgou_common/src/main/java/com/changgou/common/pojo/Result.java
/Users/zhongxuwang/Desktop/gitProject/changgou_parent/changgou_common/src/main/java/com/changgou/common/pojo/PageResult.java
/Users/zhongxuwang/Desktop/gitProject/changgou_parent/changgou_common/src/main/java/com/changgou/common/pojo/Page.java
